this is loaded
I'm showing song information for The Hustle
{"tracks":{"href":"https://api.spotify.com/v1/search?query=The+Hustle&type=track&offset=0&limit=10","items":[{"album":{"album_type":"album","artists":[{"external_urls":{"spotify":"https://open.spotify.com/artist/6Ha4aES39QiVjR0L2lwuwq"},"href":"https://api.spotify.com/v1/artists/6Ha4aES39QiVjR0L2lwuwq","id":"6Ha4aES39QiVjR0L2lwuwq","name":"Yo Gotti","type":"artist","uri":"spotify:artist:6Ha4aES39QiVjR0L2lwuwq"}],"available_markets":["AD","AR","AT","AU","BE","BG","BO","BR","CA","CH","CL","CO","CR","CY","CZ","DE","DK","DO","EC","EE","ES","FI","FR","GB","GR","GT","HK","HN","HU","ID","IE","IS","IT","JP","LI","LT","LU","LV","MC","MT","MX","MY","NI","NL","NO","NZ","PA","PE","PH","PL","PT","PY","SE","SG","SK","SV","TH","TR","TW","US","UY"],"external_urls":{"spotify":"https://open.spotify.com/album/0s9cSoniuN0HfXpwlCpGUF"},"href":"https://api.spotify.com/v1/albums/0s9cSoniuN0HfXpwlCpGUF","id":"0s9cSoniuN0HfXpwlCpGUF","images":[{"height":640,"url":"https://i.scdn.co/image/593eb98955ff3e8f1e364ac627b4270c2a532104","width":640},{"height":300,"url":"https://i.scdn.co/image/23a9759b3043c824edf1212cb1fbf6694cc8c67d","width":300},{"height":64,"url":"https://i.scdn.co/image/534b80f352c051b7296be45e2d88ab1b983139ce","width":64}],"name":"The Art of Hustle (Deluxe)","type":"album","uri":"spotify:album:0s9cSoniuN0HfXpwlCpGUF"},"artists":[{"external_urls":{"spotify":"https://open.spotify.com/artist/6Ha4aES39QiVjR0L2lwuwq"},"href":"https://api.spotify.com/v1/artists/6Ha4aES39QiVjR0L2lwuwq","id":"6Ha4aES39QiVjR0L2lwuwq","name":"Yo Gotti","type":"artist","uri":"spotify:artist:6Ha4aES39QiVjR0L2lwuwq"}],"available_markets":["AD","AR","AT","AU","BE","BG","BO","BR","CA","CH","CL","CO","CR","CY","CZ","DE","DK","DO","EC","EE","ES","FI","FR","GB","GR","GT","HK","HN","HU","ID","IE","IS","IT","JP","LI","LT","LU","LV","MC","MT","MX","MY","NI","NL","NO","NZ","PA","PE","PH","PL","PT","PY","SE","SG","SK","SV","TH","TR","TW","US","UY"],"disc_number":1,"duration_ms":182733,"explicit":true,"external_ids":{"isrc":"USSM11508525"},"external_urls":{"spotify":"https://open.spotify.com/track/1LxKKYsJNPeBdOwdudsJzv"},"href":"https://api.spotify.com/v1/tracks/1LxKKYsJNPeBdOwdudsJzv","id":"1LxKKYsJNPeBdOwdudsJzv","name":"Down In the DM","popularity":73,"preview_url":"https://p.scdn.co/mp3-preview/b5705faa24465fdd349f28ca98d16f308793aa1c?cid=4a98a7e0b8314a74a5e7de8af60df353","track_number":3,"type":"track","uri":"spotify:track:1LxKKYsJNPeBdOwdudsJzv"},{"album":{"album_type":"album","artists":[{"external_urls":{"spotify":"https://open.spotify.com/artist/6Ha4aES39QiVjR0L2lwuwq"},"href":"https://api.spotify.com/v1/artists/6Ha4aES39QiVjR0L2lwuwq","id":"6Ha4aES39QiVjR0L2lwuwq","name":"Yo Gotti","type":"artist","uri":"spotify:artist:6Ha4aES39QiVjR0L2lwuwq"}],"available_markets":["AD","AR","AT","AU","BE","BG","BO","BR","CA","CH","CL","CO","CR","CY","CZ","DE","DK","DO","EC","EE","ES","FI","FR","GB","GR","GT","HK","HN","HU","ID","IE","IS","IT","JP","LI","LT","LU","LV","MC","MT","MX","MY","NI","NL","NO","NZ","PA","PE","PH","PL","PT","PY","SE","SG","SK","SV","TH","TR","TW","US","UY"],"external_urls":{"spotify":"https://open.spotify.com/album/0s9cSoniuN0HfXpwlCpGUF"},"href":"https://api.spotify.com/v1/albums/0s9cSoniuN0HfXpwlCpGUF","id":"0s9cSoniuN0HfXpwlCpGUF","images":[{"height":640,"url":"https://i.scdn.co/image/593eb98955ff3e8f1e364ac627b4270c2a532104","width":640},{"height":300,"url":"https://i.scdn.co/image/23a9759b3043c824edf1212cb1fbf6694cc8c67d","width":300},{"height":64,"url":"https://i.scdn.co/image/534b80f352c051b7296be45e2d88ab1b983139ce","width":64}],"name":"The Art of Hustle (Deluxe)","type":"album","uri":"spotify:album:0s9cSoniuN0HfXpwlCpGUF"},"artists":[{"external_urls":{"spotify":"https://open.spotify.com/artist/6Ha4aES39QiVjR0L2lwuwq"},"href":"https://api.spotify.com/v1/artists/6Ha4aES39QiVjR0L2lwuwq","id":"6Ha4aES39QiVjR0L2lwuwq","name":"Yo Gotti","type":"artist","uri":"spotify:artist:6Ha4aES39QiVjR0L2lwuwq"},{"external_urls":{"spotify":"https://open.spotify.com/artist/3crnzLy8R4lVwaigKEOz7V"},"href":"https://api.spotify.com/v1/artists/3crnzLy8R4lVwaigKEOz7V","id":"3crnzLy8R4lVwaigKEOz7V","name":"E-40","type":"artist","uri":"spotify:artist:3crnzLy8R4lVwaigKEOz7V"}],"available_markets":["AD","AR","AT","AU","BE","BG","BO","BR","CA","CH","CL","CO","CR","CY","CZ","DE","DK","DO","EC","EE","ES","FI","FR","GB","GR","GT","HK","HN","HU","ID","IE","IS","IT","JP","LI","LT","LU","LV","MC","MT","MX","MY","NI","NL","NO","NZ","PA","PE","PH","PL","PT","PY","SE","SG","SK","SV","TH","TR","TW","US","UY"],"disc_number":1,"duration_ms":257266,"explicit":true,"external_ids":{"isrc":"USSM11600401"},"external_urls":{"spotify":"https://open.spotify.com/track/7mhk9WyqZZzvTTCQKfh2iV"},"href":"https://api.spotify.com/v1/tracks/7mhk9WyqZZzvTTCQKfh2iV","id":"7mhk9WyqZZzvTTCQKfh2iV","name":"Law","popularity":67,"preview_url":"https://p.scdn.co/mp3-preview/3b956290a35d512849acaf8ba4f31dae5cdf28ce?cid=4a98a7e0b8314a74a5e7de8af60df353","track_number":4,"type":"track","uri":"spotify:track:7mhk9WyqZZzvTTCQKfh2iV"},{"album":{"album_type":"album","artists":[{"external_urls":{"spotify":"https://open.spotify.com/artist/6Ha4aES39QiVjR0L2lwuwq"},"href":"https://api.spotify.com/v1/artists/6Ha4aES39QiVjR0L2lwuwq","id":"6Ha4aES39QiVjR0L2lwuwq","name":"Yo Gotti","type":"artist","uri":"spotify:artist:6Ha4aES39QiVjR0L2lwuwq"}],"available_markets":["AD","AR","AT","AU","BE","BG","BO","BR","CA","CH","CL","CO","CR","CY","CZ","DE","DK","DO","EC","EE","ES","FI","FR","GB","GR","GT","HK","HN","HU","ID","IE","IS","IT","JP","LI","LT","LU","LV","MC","MT","MX","MY","NI","NL","NO","NZ","PA","PE","PH","PL","PT","PY","SE","SG","SK","SV","TH","TR","TW","US","UY"],"external_urls":{"spotify":"https://open.spotify.com/album/0s9cSoniuN0HfXpwlCpGUF"},"href":"https://api.spotify.com/v1/albums/0s9cSoniuN0HfXpwlCpGUF","id":"0s9cSoniuN0HfXpwlCpGUF","images":[{"height":640,"url":"https://i.scdn.co/image/593eb98955ff3e8f1e364ac627b4270c2a532104","width":640},{"height":300,"url":"https://i.scdn.co/image/23a9759b3043c824edf1212cb1fbf6694cc8c67d","width":300},{"height":64,"url":"https://i.scdn.co/image/534b80f352c051b7296be45e2d88ab1b983139ce","width":64}],"name":"The Art of Hustle (Deluxe)","type":"album","uri":"spotify:album:0s9cSoniuN0HfXpwlCpGUF"},"artists":[{"external_urls":{"spotify":"https://open.spotify.com/artist/6Ha4aES39QiVjR0L2lwuwq"},"href":"https://api.spotify.com/v1/artists/6Ha4aES39QiVjR0L2lwuwq","id":"6Ha4aES39QiVjR0L2lwuwq","name":"Yo Gotti","type":"artist","uri":"spotify:artist:6Ha4aES39QiVjR0L2lwuwq"},{"external_urls":{"spotify":"https://open.spotify.com/artist/0hCNtLu0JehylgoiP8L4Gh"},"href":"https://api.spotify.com/v1/artists/0hCNtLu0JehylgoiP8L4Gh","id":"0hCNtLu0JehylgoiP8L4Gh","name":"Nicki Minaj","type":"artist","uri":"spotify:artist:0hCNtLu0JehylgoiP8L4Gh"}],"available_markets":["AD","AR","AT","AU","BE","BG","BO","BR","CA","CH","CL","CO","CR","CY","CZ","DE","DK","DO","EC","EE","ES","FI","FR","GB","GR","GT","HK","HN","HU","ID","IE","IS","IT","JP","LI","LT","LU","LV","MC","MT","MX","MY","NI","NL","NO","NZ","PA","PE","PH","PL","PT","PY","SE","SG","SK","SV","TH","TR","TW","US","UY"],"disc_number":1,"duration_ms":259072,"explicit":true,"external_ids":{"isrc":"USSM11600586"},"external_urls":{"spotify":"https://open.spotify.com/track/5w1vhNA2OEWUQ371QzyMmM"},"href":"https://api.spotify.com/v1/tracks/5w1vhNA2OEWUQ371QzyMmM","id":"5w1vhNA2OEWUQ371QzyMmM","name":"Down In the DM - Remix","popularity":64,"preview_url":"https://p.scdn.co/mp3-preview/6d93d31e4c1960a1f118790ab177cc2e126af155?cid=4a98a7e0b8314a74a5e7de8af60df353","track_number":15,"type":"track","uri":"spotify:track:5w1vhNA2OEWUQ371QzyMmM"},{"album":{"album_type":"album","artists":[{"external_urls":{"spotify":"https://open.spotify.com/artist/0LyfQWJT6nXafLPZqxe9Of"},"href":"https://api.spotify.com/v1/artists/0LyfQWJT6nXafLPZqxe9Of","id":"0LyfQWJT6nXafLPZqxe9Of","name":"Various Artists","type":"artist","uri":"spotify:artist:0LyfQWJT6nXafLPZqxe9Of"}],"available_markets":["CA","MX","US"],"external_urls":{"spotify":"https://open.spotify.com/album/21CZUn61aoVz08xU4wwfru"},"href":"https://api.spotify.com/v1/albums/21CZUn61aoVz08xU4wwfru","id":"21CZUn61aoVz08xU4wwfru","images":[{"height":640,"url":"https://i.scdn.co/image/4e59949681bf7d710a543406b999dd6898af2c0d","width":640},{"height":300,"url":"https://i.scdn.co/image/f795a0354885772be6d097e2b3d5661c45a597d4","width":300},{"height":64,"url":"https://i.scdn.co/image/6745423755d8412634327d195062613e4c3553ba","width":64}],"name":"Southpaw (Music From And Inspired By The Motion Picture)","type":"album","uri":"spotify:album:21CZUn61aoVz08xU4wwfru"},"artists":[{"external_urls":{"spotify":"https://open.spotify.com/artist/70eNABm9r2VXOGYW4r209H"},"href":"https://api.spotify.com/v1/artists/70eNABm9r2VXOGYW4r209H","id":"70eNABm9r2VXOGYW4r209H","name":"Rob Bailey & The Hustle Standard","type":"artist","uri":"spotify:artist:70eNABm9r2VXOGYW4r209H"},{"external_urls":{"spotify":"https://open.spotify.com/artist/1YfEcTuGvBQ8xSD1f53UnK"},"href":"https://api.spotify.com/v1/artists/1YfEcTuGvBQ8xSD1f53UnK","id":"1YfEcTuGvBQ8xSD1f53UnK","name":"Busta Rhymes","type":"artist","uri":"spotify:artist:1YfEcTuGvBQ8xSD1f53UnK"},{"external_urls":{"spotify":"https://open.spotify.com/artist/6fFfnKGVI6X3lkCr8Qw1g1"},"href":"https://api.spotify.com/v1/artists/6fFfnKGVI6X3lkCr8Qw1g1","id":"6fFfnKGVI6X3lkCr8Qw1g1","name":"KXNG Crooked","type":"artist","uri":"spotify:artist:6fFfnKGVI6X3lkCr8Qw1g1"},{"external_urls":{"spotify":"https://open.spotify.com/artist/6UBA15slIuadJ8h2lPRPos"},"href":"https://api.spotify.com/v1/artists/6UBA15slIuadJ8h2lPRPos","id":"6UBA15slIuadJ8h2lPRPos","name":"Tech N9ne","type":"artist","uri":"spotify:artist:6UBA15slIuadJ8h2lPRPos"}],"available_markets":["CA","MX","US"],"disc_number":1,"duration_ms":279372,"explicit":true,"external_ids":{"isrc":"USUM71509344"},"external_urls":{"spotify":"https://open.spotify.com/track/2fWSwWmKRuyioqIzOzuQGo"},"href":"https://api.spotify.com/v1/tracks/2fWSwWmKRuyioqIzOzuQGo","id":"2fWSwWmKRuyioqIzOzuQGo","name":"Beast - Southpaw Remix","popularity":61,"preview_url":null,"track_number":3,"type":"track","uri":"spotify:track:2fWSwWmKRuyioqIzOzuQGo"},{"album":{"album_type":"album","artists":[{"external_urls":{"spotify":"https://open.spotify.com/artist/0bShb58TO0fM5jOjXhB1WT"},"href":"https://api.spotify.com/v1/artists/0bShb58TO0fM5jOjXhB1WT","id":"0bShb58TO0fM5jOjXhB1WT","name":"Van McCoy","type":"artist","uri":"spotify:artist:0bShb58TO0fM5jOjXhB1WT"}],"available_markets":["AD","AR","AT","AU","BE","BG","BO","BR","CH","CL","CO","CR","CY","CZ","DE","DK","DO","EC","EE","ES","FI","FR","GB","GR","GT","HK","HN","HU","ID","IE","IS","IT","JP","LI","LT","LU","LV","MC","MT","MX","MY","NI","NL","NO","NZ","PA","PE","PH","PL","PT","PY","SE","SG","SK","SV","TH","TR","TW","US","UY"],"external_urls":{"spotify":"https://open.spotify.com/album/0QdIm38ml7jHplmYOqazbF"},"href":"https://api.spotify.com/v1/albums/0QdIm38ml7jHplmYOqazbF","id":"0QdIm38ml7jHplmYOqazbF","images":[{"height":640,"url":"https://i.scdn.co/image/7c590c4ef6ad0ea73f868efa55bb67ea4afb63fd","width":640},{"height":300,"url":"https://i.scdn.co/image/5db10e45943eaba5e637c65a136d695b28b1d902","width":300},{"height":64,"url":"https://i.scdn.co/image/a193549a4e6dbf06a0adf6645131c166bb9ad320","width":64}],"name":"The Hustle & The Best of Van McCoy","type":"album","uri":"spotify:album:0QdIm38ml7jHplmYOqazbF"},"artists":[{"external_urls":{"spotify":"https://open.spotify.com/artist/0bShb58TO0fM5jOjXhB1WT"},"href":"https://api.spotify.com/v1/artists/0bShb58TO0fM5jOjXhB1WT","id":"0bShb58TO0fM5jOjXhB1WT","name":"Van McCoy","type":"artist","uri":"spotify:artist:0bShb58TO0fM5jOjXhB1WT"}],"available_markets":["AD","AR","AT","AU","BE","BG","BO","BR","CH","CL","CO","CR","CY","CZ","DE","DK","DO","EC","EE","ES","FI","FR","GB","GR","GT","HK","HN","HU","ID","IE","IS","IT","JP","LI","LT","LU","LV","MC","MT","MX","MY","NI","NL","NO","NZ","PA","PE","PH","PL","PT","PY","SE","SG","SK","SV","TH","TR","TW","US","UY"],"disc_number":1,"duration_ms":250240,"explicit":false,"external_ids":{"isrc":"US37B0500329"},"external_urls":{"spotify":"https://open.spotify.com/track/75PHqzep3Lf11sIYP5ps5q"},"href":"https://api.spotify.com/v1/tracks/75PHqzep3Lf11sIYP5ps5q","id":"75PHqzep3Lf11sIYP5ps5q","name":"The Hustle - Original Mix","popularity":56,"preview_url":"https://p.scdn.co/mp3-preview/02a93b7c53097361ef82f51c01327ded72fbe4f1?cid=4a98a7e0b8314a74a5e7de8af60df353","track_number":14,"type":"track","uri":"spotify:track:75PHqzep3Lf11sIYP5ps5q"},{"album":{"album_type":"album","artists":[{"external_urls":{"spotify":"https://open.spotify.com/artist/1qwdTaVUdjYJLLoxtFmsqr"},"href":"https://api.spotify.com/v1/artists/1qwdTaVUdjYJLLoxtFmsqr","id":"1qwdTaVUdjYJLLoxtFmsqr","name":"The Movement","type":"artist","uri":"spotify:artist:1qwdTaVUdjYJLLoxtFmsqr"}],"available_markets":["AD","AR","AT","AU","BE","BG","BO","BR","CA","CH","CL","CO","CR","CY","CZ","DE","DK","DO","EC","EE","ES","FI","FR","GB","GR","GT","HK","HN","HU","ID","IE","IS","IT","JP","LI","LT","LU","LV","MC","MT","MX","MY","NI","NL","NO","NZ","PA","PE","PH","PL","PT","PY","SE","SG","SK","SV","TH","TR","TW","US","UY"],"external_urls":{"spotify":"https://open.spotify.com/album/63apxSMZ2tj2W4umBEiw4P"},"href":"https://api.spotify.com/v1/albums/63apxSMZ2tj2W4umBEiw4P","id":"63apxSMZ2tj2W4umBEiw4P","images":[{"height":600,"url":"https://i.scdn.co/image/bf60b38faa3a9c663133a70c98708ba2cf972268","width":600},{"height":300,"url":"https://i.scdn.co/image/36a072cd5ac4369e0a179f847879392688019097","width":300},{"height":64,"url":"https://i.scdn.co/image/5d3c8cbbed2152f8a902a7c87ed2c552a9616f72","width":64}],"name":"Golden","type":"album","uri":"spotify:album:63apxSMZ2tj2W4umBEiw4P"},"artists":[{"external_urls":{"spotify":"https://open.spotify.com/artist/1qwdTaVUdjYJLLoxtFmsqr"},"href":"https://api.spotify.com/v1/artists/1qwdTaVUdjYJLLoxtFmsqr","id":"1qwdTaVUdjYJLLoxtFmsqr","name":"The Movement","type":"artist","uri":"spotify:artist:1qwdTaVUdjYJLLoxtFmsqr"},{"external_urls":{"spotify":"https://open.spotify.com/artist/02uOKPzjqd4N9DVo4lsiU4"},"href":"https://api.spotify.com/v1/artists/02uOKPzjqd4N9DVo4lsiU4","id":"02uOKPzjqd4N9DVo4lsiU4","name":"Bobby Hustle","type":"artist","uri":"spotify:artist:02uOKPzjqd4N9DVo4lsiU4"},{"external_urls":{"spotify":"https://open.spotify.com/artist/5Ayl2bJtN5mdCsxZoxs9n1"},"href":"https://api.spotify.com/v1/artists/5Ayl2bJtN5mdCsxZoxs9n1","id":"5Ayl2bJtN5mdCsxZoxs9n1","name":"Collie Buddz","type":"artist","uri":"spotify:artist:5Ayl2bJtN5mdCsxZoxs9n1"}],"available_markets":["AD","AR","AT","AU","BE","BG","BO","BR","CA","CH","CL","CO","CR","CY","CZ","DE","DK","DO","EC","EE","ES","FI","FR","GB","GR","GT","HK","HN","HU","ID","IE","IS","IT","JP","LI","LT","LU","LV","MC","MT","MX","MY","NI","NL","NO","NZ","PA","PE","PH","PL","PT","PY","SE","SG","SK","SV","TH","TR","TW","US","UY"],"disc_number":1,"duration_ms":243186,"explicit":false,"external_ids":{"isrc":"USLZJ1612534"},"external_urls":{"spotify":"https://open.spotify.com/track/5HRShZhCWaBHnD35ZgxyrK"},"href":"https://api.spotify.com/v1/tracks/5HRShZhCWaBHnD35ZgxyrK","id":"5HRShZhCWaBHnD35ZgxyrK","name":"Habit 2016 (feat. Collie Buddz & Bobby Hustle)","popularity":53,"preview_url":"https://p.scdn.co/mp3-preview/d75a18e2a573255ac21ee4b78581d96367149a95?cid=4a98a7e0b8314a74a5e7de8af60df353","track_number":11,"type":"track","uri":"spotify:track:5HRShZhCWaBHnD35ZgxyrK"},{"album":{"album_type":"single","artists":[{"external_urls":{"spotify":"https://open.spotify.com/artist/70eNABm9r2VXOGYW4r209H"},"href":"https://api.spotify.com/v1/artists/70eNABm9r2VXOGYW4r209H","id":"70eNABm9r2VXOGYW4r209H","name":"Rob Bailey & The Hustle Standard","type":"artist","uri":"spotify:artist:70eNABm9r2VXOGYW4r209H"}],"available_markets":["AD","AR","AT","AU","BE","BG","BO","BR","CA","CH","CL","CO","CR","CY","CZ","DE","DK","DO","EC","EE","ES","FI","FR","GB","GR","GT","HK","HN","HU","ID","IE","IS","IT","JP","LI","LT","LU","LV","MC","MT","MX","MY","NI","NL","NO","NZ","PA","PE","PH","PL","PT","PY","SE","SG","SK","SV","TH","TR","TW","US","UY"],"external_urls":{"spotify":"https://open.spotify.com/album/16YUYbsUjN85jJ55MQmigT"},"href":"https://api.spotify.com/v1/albums/16YUYbsUjN85jJ55MQmigT","id":"16YUYbsUjN85jJ55MQmigT","images":[{"height":640,"url":"https://i.scdn.co/image/90243f7d996651b843ea6ade48720fd11cd466ea","width":640},{"height":300,"url":"https://i.scdn.co/image/07ca525d6639513cf5ebbcb32bb23286a2e209c9","width":300},{"height":64,"url":"https://i.scdn.co/image/0ae6a2d005cf03b5701b3c6e4e763661f064183e","width":64}],"name":"Battle Tested","type":"album","uri":"spotify:album:16YUYbsUjN85jJ55MQmigT"},"artists":[{"external_urls":{"spotify":"https://open.spotify.com/artist/70eNABm9r2VXOGYW4r209H"},"href":"https://api.spotify.com/v1/artists/70eNABm9r2VXOGYW4r209H","id":"70eNABm9r2VXOGYW4r209H","name":"Rob Bailey & The Hustle Standard","type":"artist","uri":"spotify:artist:70eNABm9r2VXOGYW4r209H"}],"available_markets":["AD","AR","AT","AU","BE","BG","BO","BR","CA","CH","CL","CO","CR","CY","CZ","DE","DK","DO","EC","EE","ES","FI","FR","GB","GR","GT","HK","HN","HU","ID","IE","IS","IT","JP","LI","LT","LU","LV","MC","MT","MX","MY","NI","NL","NO","NZ","PA","PE","PH","PL","PT","PY","SE","SG","SK","SV","TH","TR","TW","US","UY"],"disc_number":1,"duration_ms":265824,"explicit":true,"external_ids":{"isrc":"TCABF1276485"},"external_urls":{"spotify":"https://open.spotify.com/track/6fd3mZrsVbe7N6whWrlZYv"},"href":"https://api.spotify.com/v1/tracks/6fd3mZrsVbe7N6whWrlZYv","id":"6fd3mZrsVbe7N6whWrlZYv","name":"Hungry","popularity":62,"preview_url":"https://p.scdn.co/mp3-preview/019f6545758c85f052f6855673a636a1b482e90c?cid=4a98a7e0b8314a74a5e7de8af60df353","track_number":2,"type":"track","uri":"spotify:track:6fd3mZrsVbe7N6whWrlZYv"},{"album":{"album_type":"album","artists":[{"external_urls":{"spotify":"https://open.spotify.com/artist/6Ha4aES39QiVjR0L2lwuwq"},"href":"https://api.spotify.com/v1/artists/6Ha4aES39QiVjR0L2lwuwq","id":"6Ha4aES39QiVjR0L2lwuwq","name":"Yo Gotti","type":"artist","uri":"spotify:artist:6Ha4aES39QiVjR0L2lwuwq"}],"available_markets":["AD","AR","AT","AU","BE","BG","BO","BR","CA","CH","CL","CO","CR","CY","CZ","DE","DK","DO","EC","EE","ES","FI","FR","GB","GR","GT","HK","HN","HU","ID","IE","IS","IT","JP","LI","LT","LU","LV","MC","MT","MX","MY","NI","NL","NO","NZ","PA","PE","PH","PL","PT","PY","SE","SG","SK","SV","TH","TR","TW","US","UY"],"external_urls":{"spotify":"https://open.spotify.com/album/0s9cSoniuN0HfXpwlCpGUF"},"href":"https://api.spotify.com/v1/albums/0s9cSoniuN0HfXpwlCpGUF","id":"0s9cSoniuN0HfXpwlCpGUF","images":[{"height":640,"url":"https://i.scdn.co/image/593eb98955ff3e8f1e364ac627b4270c2a532104","width":640},{"height":300,"url":"https://i.scdn.co/image/23a9759b3043c824edf1212cb1fbf6694cc8c67d","width":300},{"height":64,"url":"https://i.scdn.co/image/534b80f352c051b7296be45e2d88ab1b983139ce","width":64}],"name":"The Art of Hustle (Deluxe)","type":"album","uri":"spotify:album:0s9cSoniuN0HfXpwlCpGUF"},"artists":[{"external_urls":{"spotify":"https://open.spotify.com/artist/6Ha4aES39QiVjR0L2lwuwq"},"href":"https://api.spotify.com/v1/artists/6Ha4aES39QiVjR0L2lwuwq","id":"6Ha4aES39QiVjR0L2lwuwq","name":"Yo Gotti","type":"artist","uri":"spotify:artist:6Ha4aES39QiVjR0L2lwuwq"}],"available_markets":["AD","AR","AT","AU","BE","BG","BO","BR","CA","CH","CL","CO","CR","CY","CZ","DE","DK","DO","EC","EE","ES","FI","FR","GB","GR","GT","HK","HN","HU","ID","IE","IS","IT","JP","LI","LT","LU","LV","MC","MT","MX","MY","NI","NL","NO","NZ","PA","PE","PH","PL","PT","PY","SE","SG","SK","SV","TH","TR","TW","US","UY"],"disc_number":1,"duration_ms":205253,"explicit":true,"external_ids":{"isrc":"USSM11600402"},"external_urls":{"spotify":"https://open.spotify.com/track/7kZfvhgofgHjHSrkofkmbA"},"href":"https://api.spotify.com/v1/tracks/7kZfvhgofgHjHSrkofkmbA","id":"7kZfvhgofgHjHSrkofkmbA","name":"The Art of Hustle","popularity":47,"preview_url":"https://p.scdn.co/mp3-preview/f6a24127e99d90318697e9537ed640622b662425?cid=4a98a7e0b8314a74a5e7de8af60df353","track_number":5,"type":"track","uri":"spotify:track:7kZfvhgofgHjHSrkofkmbA"},{"album":{"album_type":"album","artists":[{"external_urls":{"spotify":"https://open.spotify.com/artist/5RADpgYLOuS2ZxDq7ggYYH"},"href":"https://api.spotify.com/v1/artists/5RADpgYLOuS2ZxDq7ggYYH","id":"5RADpgYLOuS2ZxDq7ggYYH","name":"Death Grips","type":"artist","uri":"spotify:artist:5RADpgYLOuS2ZxDq7ggYYH"}],"available_markets":["AD","AR","AT","AU","BE","BG","BO","BR","CA","CH","CL","CO","CR","CY","CZ","DE","DK","DO","EC","EE","ES","FI","FR","GB","GR","GT","HK","HN","HU","ID","IE","IS","IT","JP","LI","LT","LU","LV","MC","MT","MX","MY","NI","NL","NO","NZ","PA","PE","PH","PL","PT","PY","SE","SG","SK","SV","TH","TR","TW","US","UY"],"external_urls":{"spotify":"https://open.spotify.com/album/1PQDjdBpHPikAodJqjzm6a"},"href":"https://api.spotify.com/v1/albums/1PQDjdBpHPikAodJqjzm6a","id":"1PQDjdBpHPikAodJqjzm6a","images":[{"height":640,"url":"https://i.scdn.co/image/01e315f2de8084147498fccb5acc9b32038c4b24","width":640},{"height":300,"url":"https://i.scdn.co/image/9f6b1c90f96801bd7f8fa04c44c5a8b886efc85d","width":300},{"height":64,"url":"https://i.scdn.co/image/f1bb976061f8db1457e116b6305e52123ac1c67e","width":64}],"name":"The Money Store","type":"album","uri":"spotify:album:1PQDjdBpHPikAodJqjzm6a"},"artists":[{"external_urls":{"spotify":"https://open.spotify.com/artist/5RADpgYLOuS2ZxDq7ggYYH"},"href":"https://api.spotify.com/v1/artists/5RADpgYLOuS2ZxDq7ggYYH","id":"5RADpgYLOuS2ZxDq7ggYYH","name":"Death Grips","type":"artist","uri":"spotify:artist:5RADpgYLOuS2ZxDq7ggYYH"}],"available_markets":["AD","AR","AT","AU","BE","BG","BO","BR","CA","CH","CL","CO","CR","CY","CZ","DE","DK","DO","EC","EE","ES","FI","FR","GB","GR","GT","HK","HN","HU","ID","IE","IS","IT","JP","LI","LT","LU","LV","MC","MT","MX","MY","NI","NL","NO","NZ","PA","PE","PH","PL","PT","PY","SE","SG","SK","SV","TH","TR","TW","US","UY"],"disc_number":1,"duration_ms":192360,"explicit":true,"external_ids":{"isrc":"USSM11200909"},"external_urls":{"spotify":"https://open.spotify.com/track/5PXyH5bb5fbVfO8LjByhBb"},"href":"https://api.spotify.com/v1/tracks/5PXyH5bb5fbVfO8LjByhBb","id":"5PXyH5bb5fbVfO8LjByhBb","name":"Hustle Bones","popularity":51,"preview_url":"https://p.scdn.co/mp3-preview/345cefc343a58c2c45ce3cbd029630425e4ad585?cid=4a98a7e0b8314a74a5e7de8af60df353","track_number":5,"type":"track","uri":"spotify:track:5PXyH5bb5fbVfO8LjByhBb"},{"album":{"album_type":"album","artists":[{"external_urls":{"spotify":"https://open.spotify.com/artist/70eNABm9r2VXOGYW4r209H"},"href":"https://api.spotify.com/v1/artists/70eNABm9r2VXOGYW4r209H","id":"70eNABm9r2VXOGYW4r209H","name":"Rob Bailey & The Hustle Standard","type":"artist","uri":"spotify:artist:70eNABm9r2VXOGYW4r209H"}],"available_markets":["AD","AR","AT","AU","BE","BG","BO","BR","CA","CH","CL","CO","CR","CY","CZ","DE","DK","DO","EC","EE","ES","FI","FR","GB","GR","GT","HK","HN","HU","ID","IE","IS","IT","JP","LI","LT","LU","LV","MC","MT","MX","MY","NI","NL","NO","NZ","PA","PE","PH","PL","PT","PY","SE","SG","SK","SV","TH","TR","TW","US","UY"],"external_urls":{"spotify":"https://open.spotify.com/album/6VG4CatwFgBvs6slCNrk1w"},"href":"https://api.spotify.com/v1/albums/6VG4CatwFgBvs6slCNrk1w","id":"6VG4CatwFgBvs6slCNrk1w","images":[{"height":640,"url":"https://i.scdn.co/image/3a498a032b1a11b15979a404c6e6d7ea628e8fa3","width":640},{"height":300,"url":"https://i.scdn.co/image/a7a4fb6ac595f276d7900dc04068c4a552f5978b","width":300},{"height":64,"url":"https://i.scdn.co/image/ef3ac287ab4f4d155717776614d98a39404d9f74","width":64}],"name":"Beast","type":"album","uri":"spotify:album:6VG4CatwFgBvs6slCNrk1w"},"artists":[{"external_urls":{"spotify":"https://open.spotify.com/artist/70eNABm9r2VXOGYW4r209H"},"href":"https://api.spotify.com/v1/artists/70eNABm9r2VXOGYW4r209H","id":"70eNABm9r2VXOGYW4r209H","name":"Rob Bailey & The Hustle Standard","type":"artist","uri":"spotify:artist:70eNABm9r2VXOGYW4r209H"}],"available_markets":["AD","AR","AT","AU","BE","BG","BO","BR","CA","CH","CL","CO","CR","CY","CZ","DE","DK","DO","EC","EE","ES","FI","FR","GB","GR","GT","HK","HN","HU","ID","IE","IS","IT","JP","LI","LT","LU","LV","MC","MT","MX","MY","NI","NL","NO","NZ","PA","PE","PH","PL","PT","PY","SE","SG","SK","SV","TH","TR","TW","US","UY"],"disc_number":1,"duration_ms":252632,"explicit":true,"external_ids":{"isrc":"TCABQ1364822"},"external_urls":{"spotify":"https://open.spotify.com/track/0WKY4nRJgz3GUG7IqkTgUH"},"href":"https://api.spotify.com/v1/tracks/0WKY4nRJgz3GUG7IqkTgUH","id":"0WKY4nRJgz3GUG7IqkTgUH","name":"Beast","popularity":59,"preview_url":"https://p.scdn.co/mp3-preview/52f111bee628dbf963014bd43943218298238947?cid=4a98a7e0b8314a74a5e7de8af60df353","track_number":2,"type":"track","uri":"spotify:track:0WKY4nRJgz3GUG7IqkTgUH"}],"limit":10,"next":"https://api.spotify.com/v1/search?query=The+Hustle&type=track&offset=10&limit=10","offset":0,"previous":null,"total":6256}}
Yo Gotti
Down In the DM
https://p.scdn.co/mp3-preview/b5705faa24465fdd349f28ca98d16f308793aa1c?cid=4a98a7e0b8314a74a5e7de8af60df353
The Art of Hustle (Deluxe)
