this is loaded
I'm showing song information for The Sign
{"tracks":{"href":"https://api.spotify.com/v1/search?query=The+Sign&type=track&offset=0&limit=10","items":[{"album":{"album_type":"single","artists":[{"external_urls":{"spotify":"https://open.spotify.com/artist/6KImCVD70vtIoJWnq6nGn3"},"href":"https://api.spotify.com/v1/artists/6KImCVD70vtIoJWnq6nGn3","id":"6KImCVD70vtIoJWnq6nGn3","name":"Harry Styles","type":"artist","uri":"spotify:artist:6KImCVD70vtIoJWnq6nGn3"}],"available_markets":["AD","AR","AT","AU","BE","BG","BO","BR","CA","CH","CL","CO","CR","CY","CZ","DE","DK","DO","EC","EE","ES","FI","FR","GB","GR","GT","HK","HN","HU","ID","IE","IS","IT","JP","LI","LT","LU","LV","MC","MT","MX","MY","NI","NL","NO","NZ","PA","PE","PH","PL","PT","PY","SG","SK","SV","TH","TR","TW","US","UY"],"external_urls":{"spotify":"https://open.spotify.com/album/6YDkzHVTEzMXZOVd1r5NqR"},"href":"https://api.spotify.com/v1/albums/6YDkzHVTEzMXZOVd1r5NqR","id":"6YDkzHVTEzMXZOVd1r5NqR","images":[{"height":640,"url":"https://i.scdn.co/image/cbef6581b91bc170cce479f8deb70ff8f89958ee","width":640},{"height":300,"url":"https://i.scdn.co/image/c03f6b3c99b853a124d5dbee28e2eacb9faadf8d","width":300},{"height":64,"url":"https://i.scdn.co/image/7262616feb0f69e0188f491cbbb8fa6aee93231d","width":64}],"name":"Sign of the Times","type":"album","uri":"spotify:album:6YDkzHVTEzMXZOVd1r5NqR"},"artists":[{"external_urls":{"spotify":"https://open.spotify.com/artist/6KImCVD70vtIoJWnq6nGn3"},"href":"https://api.spotify.com/v1/artists/6KImCVD70vtIoJWnq6nGn3","id":"6KImCVD70vtIoJWnq6nGn3","name":"Harry Styles","type":"artist","uri":"spotify:artist:6KImCVD70vtIoJWnq6nGn3"}],"available_markets":["AD","AR","AT","AU","BE","BG","BO","BR","CA","CH","CL","CO","CR","CY","CZ","DE","DK","DO","EC","EE","ES","FI","FR","GB","GR","GT","HK","HN","HU","ID","IE","IS","IT","JP","LI","LT","LU","LV","MC","MT","MX","MY","NI","NL","NO","NZ","PA","PE","PH","PL","PT","PY","SG","SK","SV","TH","TR","TW","US","UY"],"disc_number":1,"duration_ms":340706,"explicit":false,"external_ids":{"isrc":"USSM11703595"},"external_urls":{"spotify":"https://open.spotify.com/track/5ELRkzdzz0HvGpMDlfZHkV"},"href":"https://api.spotify.com/v1/tracks/5ELRkzdzz0HvGpMDlfZHkV","id":"5ELRkzdzz0HvGpMDlfZHkV","name":"Sign of the Times","popularity":86,"preview_url":"https://p.scdn.co/mp3-preview/9801b9239ad1b833f1317574ee55b9d7b8426ff1?cid=4a98a7e0b8314a74a5e7de8af60df353","track_number":1,"type":"track","uri":"spotify:track:5ELRkzdzz0HvGpMDlfZHkV"},{"album":{"album_type":"single","artists":[{"external_urls":{"spotify":"https://open.spotify.com/artist/7c0XG5cIJTrrAgEC3ULPiq"},"href":"https://api.spotify.com/v1/artists/7c0XG5cIJTrrAgEC3ULPiq","id":"7c0XG5cIJTrrAgEC3ULPiq","name":"Ty Dolla $ign","type":"artist","uri":"spotify:artist:7c0XG5cIJTrrAgEC3ULPiq"},{"external_urls":{"spotify":"https://open.spotify.com/artist/55Aa2cqylxrFIXC767Z865"},"href":"https://api.spotify.com/v1/artists/55Aa2cqylxrFIXC767Z865","id":"55Aa2cqylxrFIXC767Z865","name":"Lil Wayne","type":"artist","uri":"spotify:artist:55Aa2cqylxrFIXC767Z865"},{"external_urls":{"spotify":"https://open.spotify.com/artist/1W3FSF1BLpY3hlVIgvenLz"},"href":"https://api.spotify.com/v1/artists/1W3FSF1BLpY3hlVIgvenLz","id":"1W3FSF1BLpY3hlVIgvenLz","name":"The-Dream","type":"artist","uri":"spotify:artist:1W3FSF1BLpY3hlVIgvenLz"}],"available_markets":["AD","AR","AT","AU","BE","BG","BO","BR","CA","CH","CL","CO","CR","CY","CZ","DE","DK","DO","EC","EE","ES","FI","FR","GB","GR","GT","HK","HN","HU","ID","IE","IS","IT","JP","LI","LT","LU","LV","MC","MT","MX","MY","NI","NL","NO","NZ","PA","PE","PH","PL","PT","PY","SE","SG","SK","SV","TH","TR","TW","US","UY"],"external_urls":{"spotify":"https://open.spotify.com/album/4JOmaYVONjOFGdgvePxlAh"},"href":"https://api.spotify.com/v1/albums/4JOmaYVONjOFGdgvePxlAh","id":"4JOmaYVONjOFGdgvePxlAh","images":[{"height":640,"url":"https://i.scdn.co/image/03a3be9f300a2f59c519e75ac32c438b0c77c2a5","width":640},{"height":300,"url":"https://i.scdn.co/image/7c2ea3f97f07bf930e3db0736267df3dd8a0d937","width":300},{"height":64,"url":"https://i.scdn.co/image/422fe21d3a3950a5c2b032961e34cc650d4015d6","width":64}],"name":"Love U Better (feat. Lil Wayne & The-Dream)","type":"album","uri":"spotify:album:4JOmaYVONjOFGdgvePxlAh"},"artists":[{"external_urls":{"spotify":"https://open.spotify.com/artist/7c0XG5cIJTrrAgEC3ULPiq"},"href":"https://api.spotify.com/v1/artists/7c0XG5cIJTrrAgEC3ULPiq","id":"7c0XG5cIJTrrAgEC3ULPiq","name":"Ty Dolla $ign","type":"artist","uri":"spotify:artist:7c0XG5cIJTrrAgEC3ULPiq"},{"external_urls":{"spotify":"https://open.spotify.com/artist/55Aa2cqylxrFIXC767Z865"},"href":"https://api.spotify.com/v1/artists/55Aa2cqylxrFIXC767Z865","id":"55Aa2cqylxrFIXC767Z865","name":"Lil Wayne","type":"artist","uri":"spotify:artist:55Aa2cqylxrFIXC767Z865"},{"external_urls":{"spotify":"https://open.spotify.com/artist/1W3FSF1BLpY3hlVIgvenLz"},"href":"https://api.spotify.com/v1/artists/1W3FSF1BLpY3hlVIgvenLz","id":"1W3FSF1BLpY3hlVIgvenLz","name":"The-Dream","type":"artist","uri":"spotify:artist:1W3FSF1BLpY3hlVIgvenLz"}],"available_markets":["AD","AR","AT","AU","BE","BG","BO","BR","CA","CH","CL","CO","CR","CY","CZ","DE","DK","DO","EC","EE","ES","FI","FR","GB","GR","GT","HK","HN","HU","ID","IE","IS","IT","JP","LI","LT","LU","LV","MC","MT","MX","MY","NI","NL","NO","NZ","PA","PE","PH","PL","PT","PY","SE","SG","SK","SV","TH","TR","TW","US","UY"],"disc_number":1,"duration_ms":182833,"explicit":true,"external_ids":{"isrc":"USAT21702235"},"external_urls":{"spotify":"https://open.spotify.com/track/0rlFL6bxIWcCn9gk9GExFA"},"href":"https://api.spotify.com/v1/tracks/0rlFL6bxIWcCn9gk9GExFA","id":"0rlFL6bxIWcCn9gk9GExFA","name":"Love U Better (feat. Lil Wayne & The-Dream)","popularity":82,"preview_url":"https://p.scdn.co/mp3-preview/9ef6e0e3e32b4220ac4ed1539ac1e4a47bf34d5d?cid=4a98a7e0b8314a74a5e7de8af60df353","track_number":1,"type":"track","uri":"spotify:track:0rlFL6bxIWcCn9gk9GExFA"},{"album":{"album_type":"single","artists":[{"external_urls":{"spotify":"https://open.spotify.com/artist/7c0XG5cIJTrrAgEC3ULPiq"},"href":"https://api.spotify.com/v1/artists/7c0XG5cIJTrrAgEC3ULPiq","id":"7c0XG5cIJTrrAgEC3ULPiq","name":"Ty Dolla $ign","type":"artist","uri":"spotify:artist:7c0XG5cIJTrrAgEC3ULPiq"}],"available_markets":["AD","AR","AT","BE","BG","BO","BR","CA","CH","CL","CO","CR","CY","CZ","DE","DK","DO","EC","EE","ES","FI","FR","GB","GR","GT","HK","HN","HU","ID","IE","IS","IT","JP","LT","LU","LV","MC","MT","MX","MY","NI","NL","NO","NZ","PA","PE","PH","PL","PT","PY","SE","SG","SK","SV","TH","TR","TW","US","UY"],"external_urls":{"spotify":"https://open.spotify.com/album/3SHx7bBQFI4J8QRr6D5cOK"},"href":"https://api.spotify.com/v1/albums/3SHx7bBQFI4J8QRr6D5cOK","id":"3SHx7bBQFI4J8QRr6D5cOK","images":[{"height":640,"url":"https://i.scdn.co/image/023e60c410e185326b394caa3823b02e8d3e13d6","width":640},{"height":300,"url":"https://i.scdn.co/image/c19ecff803f99ae4e43f5456004feb0627cf7e84","width":300},{"height":64,"url":"https://i.scdn.co/image/0278337d0bed164a4ea0d6d1d31dcac23bca467a","width":64}],"name":"Or Nah (feat. The Weeknd, Wiz Khalifa and DJ Mustard) [Remix Version]","type":"album","uri":"spotify:album:3SHx7bBQFI4J8QRr6D5cOK"},"artists":[{"external_urls":{"spotify":"https://open.spotify.com/artist/7c0XG5cIJTrrAgEC3ULPiq"},"href":"https://api.spotify.com/v1/artists/7c0XG5cIJTrrAgEC3ULPiq","id":"7c0XG5cIJTrrAgEC3ULPiq","name":"Ty Dolla $ign","type":"artist","uri":"spotify:artist:7c0XG5cIJTrrAgEC3ULPiq"},{"external_urls":{"spotify":"https://open.spotify.com/artist/0YinUQ50QDB7ZxSCLyQ40k"},"href":"https://api.spotify.com/v1/artists/0YinUQ50QDB7ZxSCLyQ40k","id":"0YinUQ50QDB7ZxSCLyQ40k","name":"DJ Mustard","type":"artist","uri":"spotify:artist:0YinUQ50QDB7ZxSCLyQ40k"},{"external_urls":{"spotify":"https://open.spotify.com/artist/137W8MRPWKqSmrBGDBFSop"},"href":"https://api.spotify.com/v1/artists/137W8MRPWKqSmrBGDBFSop","id":"137W8MRPWKqSmrBGDBFSop","name":"Wiz Khalifa","type":"artist","uri":"spotify:artist:137W8MRPWKqSmrBGDBFSop"},{"external_urls":{"spotify":"https://open.spotify.com/artist/1Xyo4u8uXC1ZmMpatF05PJ"},"href":"https://api.spotify.com/v1/artists/1Xyo4u8uXC1ZmMpatF05PJ","id":"1Xyo4u8uXC1ZmMpatF05PJ","name":"The Weeknd","type":"artist","uri":"spotify:artist:1Xyo4u8uXC1ZmMpatF05PJ"}],"available_markets":["AD","AR","AT","BE","BG","BO","BR","CA","CH","CL","CO","CR","CY","CZ","DE","DK","DO","EC","EE","ES","FI","FR","GB","GR","GT","HK","HN","HU","ID","IE","IS","IT","JP","LT","LU","LV","MC","MT","MX","MY","NI","NL","NO","NZ","PA","PE","PH","PL","PT","PY","SE","SG","SK","SV","TH","TR","TW","US","UY"],"disc_number":1,"duration_ms":242983,"explicit":true,"external_ids":{"isrc":"USAT21401391"},"external_urls":{"spotify":"https://open.spotify.com/track/7t2bFihaDvhIrd2gn2CWJO"},"href":"https://api.spotify.com/v1/tracks/7t2bFihaDvhIrd2gn2CWJO","id":"7t2bFihaDvhIrd2gn2CWJO","name":"Or Nah (feat. The Weeknd, Wiz Khalifa and DJ Mustard) - Remix","popularity":81,"preview_url":"https://p.scdn.co/mp3-preview/70f126c139847335bc03c756c55b80c99892268e?cid=4a98a7e0b8314a74a5e7de8af60df353","track_number":1,"type":"track","uri":"spotify:track:7t2bFihaDvhIrd2gn2CWJO"},{"album":{"album_type":"album","artists":[{"external_urls":{"spotify":"https://open.spotify.com/artist/6KImCVD70vtIoJWnq6nGn3"},"href":"https://api.spotify.com/v1/artists/6KImCVD70vtIoJWnq6nGn3","id":"6KImCVD70vtIoJWnq6nGn3","name":"Harry Styles","type":"artist","uri":"spotify:artist:6KImCVD70vtIoJWnq6nGn3"}],"available_markets":["AD","AR","AT","AU","BE","BG","BO","BR","CA","CH","CL","CO","CR","CY","CZ","DE","DK","DO","EC","EE","ES","FI","FR","GB","GR","GT","HK","HN","HU","ID","IE","IS","IT","JP","LI","LT","LU","LV","MC","MT","MX","MY","NI","NL","NO","NZ","PA","PE","PH","PL","PT","PY","SE","SG","SK","SV","TH","TR","TW","US","UY"],"external_urls":{"spotify":"https://open.spotify.com/album/1FZKIm3JVDCxTchXDo5jOV"},"href":"https://api.spotify.com/v1/albums/1FZKIm3JVDCxTchXDo5jOV","id":"1FZKIm3JVDCxTchXDo5jOV","images":[{"height":640,"url":"https://i.scdn.co/image/d4e1e36b7115e645dc6fd432cdd3ea7c0c4d939a","width":640},{"height":300,"url":"https://i.scdn.co/image/2faf14c121b01bde63b55fdc9fbb3ddeec2ad48d","width":300},{"height":64,"url":"https://i.scdn.co/image/f842de1f2db71f3b1a0eb6172b4d33615edaa0ca","width":64}],"name":"Harry Styles","type":"album","uri":"spotify:album:1FZKIm3JVDCxTchXDo5jOV"},"artists":[{"external_urls":{"spotify":"https://open.spotify.com/artist/6KImCVD70vtIoJWnq6nGn3"},"href":"https://api.spotify.com/v1/artists/6KImCVD70vtIoJWnq6nGn3","id":"6KImCVD70vtIoJWnq6nGn3","name":"Harry Styles","type":"artist","uri":"spotify:artist:6KImCVD70vtIoJWnq6nGn3"}],"available_markets":["AD","AR","AT","AU","BE","BG","BO","BR","CA","CH","CL","CO","CR","CY","CZ","DE","DK","DO","EC","EE","ES","FI","FR","GB","GR","GT","HK","HN","HU","ID","IE","IS","IT","JP","LI","LT","LU","LV","MC","MT","MX","MY","NI","NL","NO","NZ","PA","PE","PH","PL","PT","PY","SE","SG","SK","SV","TH","TR","TW","US","UY"],"disc_number":1,"duration_ms":340706,"explicit":false,"external_ids":{"isrc":"USSM11703595"},"external_urls":{"spotify":"https://open.spotify.com/track/5Ohxk2dO5COHF1krpoPigN"},"href":"https://api.spotify.com/v1/tracks/5Ohxk2dO5COHF1krpoPigN","id":"5Ohxk2dO5COHF1krpoPigN","name":"Sign of the Times","popularity":85,"preview_url":"https://p.scdn.co/mp3-preview/af237206f611b722f48620ece049aff3b8650e77?cid=4a98a7e0b8314a74a5e7de8af60df353","track_number":2,"type":"track","uri":"spotify:track:5Ohxk2dO5COHF1krpoPigN"},{"album":{"album_type":"album","artists":[{"external_urls":{"spotify":"https://open.spotify.com/artist/3KV3p5EY4AvKxOlhGHORLg"},"href":"https://api.spotify.com/v1/artists/3KV3p5EY4AvKxOlhGHORLg","id":"3KV3p5EY4AvKxOlhGHORLg","name":"Jeremih","type":"artist","uri":"spotify:artist:3KV3p5EY4AvKxOlhGHORLg"}],"available_markets":["CA","MX","US"],"external_urls":{"spotify":"https://open.spotify.com/album/7DMyQuDPe8xzjC0UDSDa96"},"href":"https://api.spotify.com/v1/albums/7DMyQuDPe8xzjC0UDSDa96","id":"7DMyQuDPe8xzjC0UDSDa96","images":[{"height":640,"url":"https://i.scdn.co/image/559108cb16ce2ed5284c0f75d85ed28cf6e7e308","width":640},{"height":300,"url":"https://i.scdn.co/image/3180391346aec681eeb0d3c06b25463f79735293","width":300},{"height":64,"url":"https://i.scdn.co/image/2f5c67e417f37eafbde0b7c54dfbf701075050ec","width":64}],"name":"Late Nights: The Album","type":"album","uri":"spotify:album:7DMyQuDPe8xzjC0UDSDa96"},"artists":[{"external_urls":{"spotify":"https://open.spotify.com/artist/3KV3p5EY4AvKxOlhGHORLg"},"href":"https://api.spotify.com/v1/artists/3KV3p5EY4AvKxOlhGHORLg","id":"3KV3p5EY4AvKxOlhGHORLg","name":"Jeremih","type":"artist","uri":"spotify:artist:3KV3p5EY4AvKxOlhGHORLg"},{"external_urls":{"spotify":"https://open.spotify.com/artist/7c0XG5cIJTrrAgEC3ULPiq"},"href":"https://api.spotify.com/v1/artists/7c0XG5cIJTrrAgEC3ULPiq","id":"7c0XG5cIJTrrAgEC3ULPiq","name":"Ty Dolla $ign","type":"artist","uri":"spotify:artist:7c0XG5cIJTrrAgEC3ULPiq"}],"available_markets":["CA","MX","US"],"disc_number":1,"duration_ms":245520,"explicit":true,"external_ids":{"isrc":"USUM71517405"},"external_urls":{"spotify":"https://open.spotify.com/track/3WjyiSbfR74pjWXQ3IaFKJ"},"href":"https://api.spotify.com/v1/tracks/3WjyiSbfR74pjWXQ3IaFKJ","id":"3WjyiSbfR74pjWXQ3IaFKJ","name":"Impatient","popularity":72,"preview_url":null,"track_number":3,"type":"track","uri":"spotify:track:3WjyiSbfR74pjWXQ3IaFKJ"},{"album":{"album_type":"album","artists":[{"external_urls":{"spotify":"https://open.spotify.com/artist/5ksRONqssB7BR161NTtJAm"},"href":"https://api.spotify.com/v1/artists/5ksRONqssB7BR161NTtJAm","id":"5ksRONqssB7BR161NTtJAm","name":"Ace of Base","type":"artist","uri":"spotify:artist:5ksRONqssB7BR161NTtJAm"}],"available_markets":["AD","AR","AT","AU","BE","BG","BO","BR","CA","CH","CL","CO","CR","CY","CZ","DE","DK","DO","EC","EE","ES","FI","FR","GB","GR","GT","HK","HN","HU","ID","IE","IS","IT","JP","LI","LT","LU","LV","MC","MT","MX","MY","NI","NL","NO","NZ","PA","PE","PH","PL","PT","PY","SE","SG","SK","SV","TH","TR","TW","US","UY"],"external_urls":{"spotify":"https://open.spotify.com/album/5UwIyIyFzkM7wKeGtRJPgB"},"href":"https://api.spotify.com/v1/albums/5UwIyIyFzkM7wKeGtRJPgB","id":"5UwIyIyFzkM7wKeGtRJPgB","images":[{"height":600,"url":"https://i.scdn.co/image/420f7961d01701f6d4fe8fcd6c99fde0d13e7da7","width":600},{"height":300,"url":"https://i.scdn.co/image/14a8250ab9767f68eb58a7bcc1b2864dada763bf","width":300},{"height":64,"url":"https://i.scdn.co/image/81d371b69683de3224b978eff7d57d2e9ddc9994","width":64}],"name":"The Sign (US Album) [Remastered]","type":"album","uri":"spotify:album:5UwIyIyFzkM7wKeGtRJPgB"},"artists":[{"external_urls":{"spotify":"https://open.spotify.com/artist/5ksRONqssB7BR161NTtJAm"},"href":"https://api.spotify.com/v1/artists/5ksRONqssB7BR161NTtJAm","id":"5ksRONqssB7BR161NTtJAm","name":"Ace of Base","type":"artist","uri":"spotify:artist:5ksRONqssB7BR161NTtJAm"}],"available_markets":["AD","AR","AT","AU","BE","BG","BO","BR","CA","CH","CL","CO","CR","CY","CZ","DE","DK","DO","EC","EE","ES","FI","FR","GB","GR","GT","HK","HN","HU","ID","IE","IS","IT","JP","LI","LT","LU","LV","MC","MT","MX","MY","NI","NL","NO","NZ","PA","PE","PH","PL","PT","PY","SE","SG","SK","SV","TH","TR","TW","US","UY"],"disc_number":1,"duration_ms":191240,"explicit":false,"external_ids":{"isrc":"SEVJH0803404"},"external_urls":{"spotify":"https://open.spotify.com/track/0hrBpAOgrt8RXigk83LLNE"},"href":"https://api.spotify.com/v1/tracks/0hrBpAOgrt8RXigk83LLNE","id":"0hrBpAOgrt8RXigk83LLNE","name":"The Sign","popularity":69,"preview_url":"https://p.scdn.co/mp3-preview/4c463359f67dd3546db7294d236dd0ae991882ff?cid=4a98a7e0b8314a74a5e7de8af60df353","track_number":4,"type":"track","uri":"spotify:track:0hrBpAOgrt8RXigk83LLNE"},{"album":{"album_type":"album","artists":[{"external_urls":{"spotify":"https://open.spotify.com/artist/4LLpKhyESsyAXpc4laK94U"},"href":"https://api.spotify.com/v1/artists/4LLpKhyESsyAXpc4laK94U","id":"4LLpKhyESsyAXpc4laK94U","name":"Mac Miller","type":"artist","uri":"spotify:artist:4LLpKhyESsyAXpc4laK94U"}],"available_markets":["AD","AR","AT","AU","BE","BG","BO","BR","CA","CH","CL","CO","CR","CY","CZ","DE","DK","DO","EC","EE","ES","FI","FR","GB","GR","GT","HK","HN","HU","ID","IE","IS","IT","JP","LI","LT","LU","LV","MC","MT","MX","MY","NI","NL","NO","NZ","PA","PE","PH","PL","PT","PY","SE","SG","SK","SV","TH","TR","TW","US","UY"],"external_urls":{"spotify":"https://open.spotify.com/album/6f6tko6NWoH00cyFOl4VYQ"},"href":"https://api.spotify.com/v1/albums/6f6tko6NWoH00cyFOl4VYQ","id":"6f6tko6NWoH00cyFOl4VYQ","images":[{"height":640,"url":"https://i.scdn.co/image/ba53abe8e80c4127e5bc8bec23af81e5a6225093","width":640},{"height":300,"url":"https://i.scdn.co/image/b45ae1f1f1a1d7821f3387585c6032f57cb98085","width":300},{"height":64,"url":"https://i.scdn.co/image/422cbfee34c37a70c6e6fae512e5d2cc940cd2e9","width":64}],"name":"The Divine Feminine","type":"album","uri":"spotify:album:6f6tko6NWoH00cyFOl4VYQ"},"artists":[{"external_urls":{"spotify":"https://open.spotify.com/artist/4LLpKhyESsyAXpc4laK94U"},"href":"https://api.spotify.com/v1/artists/4LLpKhyESsyAXpc4laK94U","id":"4LLpKhyESsyAXpc4laK94U","name":"Mac Miller","type":"artist","uri":"spotify:artist:4LLpKhyESsyAXpc4laK94U"},{"external_urls":{"spotify":"https://open.spotify.com/artist/7c0XG5cIJTrrAgEC3ULPiq"},"href":"https://api.spotify.com/v1/artists/7c0XG5cIJTrrAgEC3ULPiq","id":"7c0XG5cIJTrrAgEC3ULPiq","name":"Ty Dolla $ign","type":"artist","uri":"spotify:artist:7c0XG5cIJTrrAgEC3ULPiq"}],"available_markets":["AD","AR","AT","AU","BE","BG","BO","BR","CA","CH","CL","CO","CR","CY","CZ","DE","DK","DO","EC","EE","ES","FI","FR","GB","GR","GT","HK","HN","HU","ID","IE","IS","IT","JP","LI","LT","LU","LV","MC","MT","MX","MY","NI","NL","NO","NZ","PA","PE","PH","PL","PT","PY","SE","SG","SK","SV","TH","TR","TW","US","UY"],"disc_number":1,"duration_ms":480186,"explicit":true,"external_ids":{"isrc":"USWB11601437"},"external_urls":{"spotify":"https://open.spotify.com/track/2lpygKqzPFtItQ4ss3cgfb"},"href":"https://api.spotify.com/v1/tracks/2lpygKqzPFtItQ4ss3cgfb","id":"2lpygKqzPFtItQ4ss3cgfb","name":"Cinderella (feat. Ty Dolla $ign)","popularity":72,"preview_url":"https://p.scdn.co/mp3-preview/1f797d8ec6a6ca7dd84d9a6d496bc92748d24557?cid=4a98a7e0b8314a74a5e7de8af60df353","track_number":5,"type":"track","uri":"spotify:track:2lpygKqzPFtItQ4ss3cgfb"},{"album":{"album_type":"album","artists":[{"external_urls":{"spotify":"https://open.spotify.com/artist/7c0XG5cIJTrrAgEC3ULPiq"},"href":"https://api.spotify.com/v1/artists/7c0XG5cIJTrrAgEC3ULPiq","id":"7c0XG5cIJTrrAgEC3ULPiq","name":"Ty Dolla $ign","type":"artist","uri":"spotify:artist:7c0XG5cIJTrrAgEC3ULPiq"}],"available_markets":["AD","AR","AT","AU","BE","BG","BO","BR","CA","CH","CL","CO","CR","CY","CZ","DE","DK","DO","EC","EE","ES","FI","FR","GB","GR","GT","HK","HN","HU","ID","IE","IS","IT","JP","LI","LT","LU","LV","MC","MT","MX","MY","NI","NL","NO","NZ","PA","PE","PH","PL","PT","PY","SE","SG","SK","SV","TH","TR","TW","US","UY"],"external_urls":{"spotify":"https://open.spotify.com/album/06fX7PRgASxHLhhn9F4fXH"},"href":"https://api.spotify.com/v1/albums/06fX7PRgASxHLhhn9F4fXH","id":"06fX7PRgASxHLhhn9F4fXH","images":[{"height":640,"url":"https://i.scdn.co/image/ac09a10bb17b5893fe05f95cabcb58b8bb8cccd8","width":640},{"height":300,"url":"https://i.scdn.co/image/df2213e38d5c427c2d7ec2c486afc7052829d144","width":300},{"height":64,"url":"https://i.scdn.co/image/62f43fa1a8652d7897439201b95dbba37e6e533c","width":64}],"name":"Spotify Session","type":"album","uri":"spotify:album:06fX7PRgASxHLhhn9F4fXH"},"artists":[{"external_urls":{"spotify":"https://open.spotify.com/artist/7c0XG5cIJTrrAgEC3ULPiq"},"href":"https://api.spotify.com/v1/artists/7c0XG5cIJTrrAgEC3ULPiq","id":"7c0XG5cIJTrrAgEC3ULPiq","name":"Ty Dolla $ign","type":"artist","uri":"spotify:artist:7c0XG5cIJTrrAgEC3ULPiq"},{"external_urls":{"spotify":"https://open.spotify.com/artist/137W8MRPWKqSmrBGDBFSop"},"href":"https://api.spotify.com/v1/artists/137W8MRPWKqSmrBGDBFSop","id":"137W8MRPWKqSmrBGDBFSop","name":"Wiz Khalifa","type":"artist","uri":"spotify:artist:137W8MRPWKqSmrBGDBFSop"}],"available_markets":["AD","AR","AT","AU","BE","BG","BO","BR","CA","CH","CL","CO","CR","CY","CZ","DE","DK","DO","EC","EE","ES","FI","FR","GB","GR","GT","HK","HN","HU","ID","IE","IS","IT","JP","LI","LT","LU","LV","MC","MT","MX","MY","NI","NL","NO","NZ","PA","PE","PH","PL","PT","PY","SE","SG","SK","SV","TH","TR","TW","US","UY"],"disc_number":1,"duration_ms":263141,"explicit":true,"external_ids":{"isrc":"USAT21600600"},"external_urls":{"spotify":"https://open.spotify.com/track/6hYdhO1BF8V03tuF8pADKP"},"href":"https://api.spotify.com/v1/tracks/6hYdhO1BF8V03tuF8pADKP","id":"6hYdhO1BF8V03tuF8pADKP","name":"Or Nah (feat. Wiz Khalifa) - Live from The Village, Los Angeles","popularity":72,"preview_url":"https://p.scdn.co/mp3-preview/4d7e630288b2ba0edd9678c2c186dcc7db3cfb73?cid=4a98a7e0b8314a74a5e7de8af60df353","track_number":3,"type":"track","uri":"spotify:track:6hYdhO1BF8V03tuF8pADKP"},{"album":{"album_type":"album","artists":[{"external_urls":{"spotify":"https://open.spotify.com/artist/0LyfQWJT6nXafLPZqxe9Of"},"href":"https://api.spotify.com/v1/artists/0LyfQWJT6nXafLPZqxe9Of","id":"0LyfQWJT6nXafLPZqxe9Of","name":"Various Artists","type":"artist","uri":"spotify:artist:0LyfQWJT6nXafLPZqxe9Of"}],"available_markets":["AD","AR","AT","AU","BE","BG","BO","BR","CA","CH","CL","CO","CR","CY","CZ","DE","DK","DO","EC","EE","ES","FI","FR","GB","GR","GT","HK","HN","HU","ID","IE","IS","IT","LI","LT","LU","LV","MC","MT","MX","MY","NI","NL","NO","NZ","PA","PE","PH","PL","PT","PY","SE","SG","SK","SV","TH","TR","TW","US","UY"],"external_urls":{"spotify":"https://open.spotify.com/album/5rOHrnrRomvSJhQLGVtfJ8"},"href":"https://api.spotify.com/v1/albums/5rOHrnrRomvSJhQLGVtfJ8","id":"5rOHrnrRomvSJhQLGVtfJ8","images":[{"height":640,"url":"https://i.scdn.co/image/78d07d2361fce8f76216a2b3eddcf1f0e05e82b6","width":640},{"height":300,"url":"https://i.scdn.co/image/16d69d01b01dcebacff2a0449934dcab74aa6e91","width":300},{"height":64,"url":"https://i.scdn.co/image/f9f7089f2c94487175fcbc5f883fcd2c5037c9cd","width":64}],"name":"Suicide Squad: The Album","type":"album","uri":"spotify:album:5rOHrnrRomvSJhQLGVtfJ8"},"artists":[{"external_urls":{"spotify":"https://open.spotify.com/artist/55Aa2cqylxrFIXC767Z865"},"href":"https://api.spotify.com/v1/artists/55Aa2cqylxrFIXC767Z865","id":"55Aa2cqylxrFIXC767Z865","name":"Lil Wayne","type":"artist","uri":"spotify:artist:55Aa2cqylxrFIXC767Z865"},{"external_urls":{"spotify":"https://open.spotify.com/artist/137W8MRPWKqSmrBGDBFSop"},"href":"https://api.spotify.com/v1/artists/137W8MRPWKqSmrBGDBFSop","id":"137W8MRPWKqSmrBGDBFSop","name":"Wiz Khalifa","type":"artist","uri":"spotify:artist:137W8MRPWKqSmrBGDBFSop"},{"external_urls":{"spotify":"https://open.spotify.com/artist/53XhwfbYqKCa1cC15pYq2q"},"href":"https://api.spotify.com/v1/artists/53XhwfbYqKCa1cC15pYq2q","id":"53XhwfbYqKCa1cC15pYq2q","name":"Imagine Dragons","type":"artist","uri":"spotify:artist:53XhwfbYqKCa1cC15pYq2q"},{"external_urls":{"spotify":"https://open.spotify.com/artist/3NPpFNZtSTHheNBaWC82rB"},"href":"https://api.spotify.com/v1/artists/3NPpFNZtSTHheNBaWC82rB","id":"3NPpFNZtSTHheNBaWC82rB","name":"X Ambassadors","type":"artist","uri":"spotify:artist:3NPpFNZtSTHheNBaWC82rB"},{"external_urls":{"spotify":"https://open.spotify.com/artist/7c0XG5cIJTrrAgEC3ULPiq"},"href":"https://api.spotify.com/v1/artists/7c0XG5cIJTrrAgEC3ULPiq","id":"7c0XG5cIJTrrAgEC3ULPiq","name":"Ty Dolla $ign","type":"artist","uri":"spotify:artist:7c0XG5cIJTrrAgEC3ULPiq"},{"external_urls":{"spotify":"https://open.spotify.com/artist/6rpTmAVssi39dK1wX5ncZT"},"href":"https://api.spotify.com/v1/artists/6rpTmAVssi39dK1wX5ncZT","id":"6rpTmAVssi39dK1wX5ncZT","name":"Logic","type":"artist","uri":"spotify:artist:6rpTmAVssi39dK1wX5ncZT"}],"available_markets":["AD","AR","AT","AU","BE","BG","BO","BR","CA","CH","CL","CO","CR","CY","CZ","DE","DK","DO","EC","EE","ES","FI","FR","GB","GR","GT","HK","HN","HU","ID","IE","IS","IT","LI","LT","LU","LV","MC","MT","MX","MY","NI","NL","NO","NZ","PA","PE","PH","PL","PT","PY","SE","SG","SK","SV","TH","TR","TW","US","UY"],"disc_number":1,"duration_ms":243490,"explicit":true,"external_ids":{"isrc":"USAT21601893"},"external_urls":{"spotify":"https://open.spotify.com/track/7qUJQSNX9QNf46CC6FgH66"},"href":"https://api.spotify.com/v1/tracks/7qUJQSNX9QNf46CC6FgH66","id":"7qUJQSNX9QNf46CC6FgH66","name":"Sucker For Pain (with Wiz Khalifa, Imagine Dragons, Logic & Ty Dolla $ign feat. X Ambassadors)","popularity":74,"preview_url":"https://p.scdn.co/mp3-preview/96f9689e58c4d6188cc269c0c2089036c3817a2e?cid=4a98a7e0b8314a74a5e7de8af60df353","track_number":2,"type":"track","uri":"spotify:track:7qUJQSNX9QNf46CC6FgH66"},{"album":{"album_type":"album","artists":[{"external_urls":{"spotify":"https://open.spotify.com/artist/27w1NoOLMX7tJMYqcetPyG"},"href":"https://api.spotify.com/v1/artists/27w1NoOLMX7tJMYqcetPyG","id":"27w1NoOLMX7tJMYqcetPyG","name":"Vic Mensa","type":"artist","uri":"spotify:artist:27w1NoOLMX7tJMYqcetPyG"}],"available_markets":["CA","MX","US"],"external_urls":{"spotify":"https://open.spotify.com/album/6NySuONTKK6mtLG0nF80Jr"},"href":"https://api.spotify.com/v1/albums/6NySuONTKK6mtLG0nF80Jr","id":"6NySuONTKK6mtLG0nF80Jr","images":[{"height":640,"url":"https://i.scdn.co/image/1f284b3ff1d2d4f64bfa2078c87bceb5b7ef09f0","width":640},{"height":300,"url":"https://i.scdn.co/image/0eb10a827de7c0662c80e4c28a719639c2211c68","width":300},{"height":64,"url":"https://i.scdn.co/image/d68e4f4cbcfae0563dced190d89400e8a71c6269","width":64}],"name":"The Autobiography","type":"album","uri":"spotify:album:6NySuONTKK6mtLG0nF80Jr"},"artists":[{"external_urls":{"spotify":"https://open.spotify.com/artist/27w1NoOLMX7tJMYqcetPyG"},"href":"https://api.spotify.com/v1/artists/27w1NoOLMX7tJMYqcetPyG","id":"27w1NoOLMX7tJMYqcetPyG","name":"Vic Mensa","type":"artist","uri":"spotify:artist:27w1NoOLMX7tJMYqcetPyG"},{"external_urls":{"spotify":"https://open.spotify.com/artist/7c0XG5cIJTrrAgEC3ULPiq"},"href":"https://api.spotify.com/v1/artists/7c0XG5cIJTrrAgEC3ULPiq","id":"7c0XG5cIJTrrAgEC3ULPiq","name":"Ty Dolla $ign","type":"artist","uri":"spotify:artist:7c0XG5cIJTrrAgEC3ULPiq"}],"available_markets":["CA","MX","US"],"disc_number":1,"duration_ms":295026,"explicit":true,"external_ids":{"isrc":"QMJMT1701294"},"external_urls":{"spotify":"https://open.spotify.com/track/4dH71jhtwivDcv0nSzzxkM"},"href":"https://api.spotify.com/v1/tracks/4dH71jhtwivDcv0nSzzxkM","id":"4dH71jhtwivDcv0nSzzxkM","name":"We Could Be Free","popularity":65,"preview_url":null,"track_number":13,"type":"track","uri":"spotify:track:4dH71jhtwivDcv0nSzzxkM"}],"limit":10,"next":"https://api.spotify.com/v1/search?query=The+Sign&type=track&offset=10&limit=10","offset":0,"previous":null,"total":14661}}
Harry Styles
Sign of the Times
https://p.scdn.co/mp3-preview/9801b9239ad1b833f1317574ee55b9d7b8426ff1?cid=4a98a7e0b8314a74a5e7de8af60df353
Sign of the Times
